¿Qué dice hoy la prensa? Topic modeling con R · Jorge López
…
Volvemos a R con el mismo dataframe pero con una columna extra con la información traducida:

noticias <- as_tibble(py$noticias)

A continuación vamos a tokenizar los textos en ingles, de tal modo que queda en formato tidy (one-token-per-row).

noticias_token <-
  noticias %>% 
  mutate(noticia_n = row_number()) %>% 
  unnest_tokens(word, info_en)

noticias_token

## # A tibble: 4,912 x 4
##    periodico  info                                       noticia_n word    
##    <chr>      <chr>                                          <int> <chr>   
##  1 elpais.com "\nERC tensa la negociación con el PSOE a…         1 erc     
##  2 elpais.com "\nERC tensa la negociación con el PSOE a…         1 tenses  
##  3 elpais.com "\nERC tensa la negociación con el PSOE a…         1 the     
##  4 elpais.com "\nERC tensa la negociación con el PSOE a…         1 negotia…
##  5 elpais.com "\nERC tensa la negociación con el PSOE a…         1 with    
##  6 elpais.com "\nERC tensa la negociación con el PSOE a…         1 the     
##  7 elpais.com "\nERC tensa la negociación con el PSOE a…         1 psoe    
##  8 elpais.com "\nERC tensa la negociación con el PSOE a…         1 by      
##  9 elpais.com "\nERC tensa la negociación con el PSOE a…         1 voting  
## 10 elpais.com "\nERC tensa la negociación con el PSOE a…         1 for     
## # … with 4,902 more rows
…
Ahora entrenamos el LDA (a modo de ejemplo, con cuatro topics). El modelo calcula la probabilidad de que ese término se genere a partir de ese tema. Por ejemplo, tal y como se ve en el siguiente resultado, el término rights parece ser generado con mayor probabilidad por el topic 3.

# se entrena el LDA
ap_lda <- LDA(noticias_token_dtm, k = 4, control = list(seed = 26))

# sacamos los betas
ap_topics <- tidy(ap_lda, matrix = "beta")
ap_topics

## # A tibble: 6,940 x 3
##    topic term            beta
##    <int> <chr>          <dbl>
##  1     1 rights     5.53e-241
##  2     2 rights     1.61e-241
##  3     3 rights     3.16e-  3
##  4     4 rights     5.65e-241
##  5     1 management 5.99e-  3
##  6     2 management 6.93e- 41
##  7     3 management 7.21e-221
##  8     4 management 1.61e-  3
##  9     1 nutrition  1.83e-225
## 10     2 nutrition  3.00e-  3
## # … with 6,930 more rows
…
