Scraping de estadísticas de fútbol con `rvest`, `polite` y `purrr`. · Jorge López
…
# Extraemos las URL de los jugadores
all_players <- purrr::map_df(.x = all_teams$url_team, ~ get_player(.))
all_players

## # A tibble: 666 x 3
##    url_team                        player       url_player                      
##    <chr>                           <chr>        <chr>                           
##  1 https://fbref.com/en/squads/53… Karim Benze… https://fbref.com/en/players/70…
##  2 https://fbref.com/en/squads/53… Casemiro     https://fbref.com/en/players/4d…
##  3 https://fbref.com/en/squads/53… Sergio Ramos https://fbref.com/en/players/08…
##  4 https://fbref.com/en/squads/53… Thibaut Cou… https://fbref.com/en/players/18…
##  5 https://fbref.com/en/squads/53… Raphaël Var… https://fbref.com/en/players/9f…
##  6 https://fbref.com/en/squads/53… Dani Carvaj… https://fbref.com/en/players/49…
##  7 https://fbref.com/en/squads/53… Toni Kroos   https://fbref.com/en/players/6c…
##  8 https://fbref.com/en/squads/53… Luka Modrić  https://fbref.com/en/players/60…
##  9 https://fbref.com/en/squads/53… Federico Va… https://fbref.com/en/players/09…
## 10 https://fbref.com/en/squads/53… Ferland Men… https://fbref.com/en/players/3c…
## # … with 656 more rows

# Unimos la informacion
teams_players <- 
  all_players %>% 
  left_join(all_teams, by = "url_team")

teams_players

## # A tibble: 666 x 4
##    url_team                     player      url_player                   team   
##    <chr>                        <chr>       <chr>                        <chr>  
##  1 https://fbref.com/en/squads… Karim Benz… https://fbref.com/en/player… Real M…
##  2 https://fbref.com/en/squads… Casemiro    https://fbref.com/en/player… Real M…
##  3 https://fbref.com/en/squads… Sergio Ram… https://fbref.com/en/player… Real M…
##  4 https://fbref.com/en/squads… Thibaut Co… https://fbref.com/en/player… Real M…
##  5 https://fbref.com/en/squads… Raphaël Va… https://fbref.com/en/player… Real M…
##  6 https://fbref.com/en/squads… Dani Carva… https://fbref.com/en/player… Real M…
##  7 https://fbref.com/en/squads… Toni Kroos  https://fbref.com/en/player… Real M…
##  8 https://fbref.com/en/squads… Luka Modrić https://fbref.com/en/player… Real M…
##  9 https://fbref.com/en/squads… Federico V… https://fbref.com/en/player… Real M…
## 10 https://fbref.com/en/squads… Ferland Me… https://fbref.com/en/player… Real M…
## # … with 656 more rows
…
