Getting public holidays by country · Jorge López
…
And for several years:

years <- c("2016", "2017", "2018", "2019")
map_df(years, function(x) get_holidays("AT", x))

## # A tibble: 52 x 3
##    countryCode name             date      
##    <chr>       <chr>            <chr>     
##  1 AT          New Year's Day   2016-01-01
##  2 AT          Epiphany         2016-01-06
##  3 AT          Easter Monday    2016-03-28
##  4 AT          National Holiday 2016-05-01
##  5 AT          Ascension Day    2016-05-05
##  6 AT          Whit Monday      2016-05-16
##  7 AT          Corpus Christi   2016-05-26
##  8 AT          Assumption Day   2016-08-15
##  9 AT          National Holiday 2016-10-26
## 10 AT          All Saints' Day  2016-11-01
## # … with 42 more rows
…
